%YAML 1.1
%TAG !u! tag:unity3d.com,2011:
--- !u!1 &7224149186843043221
GameObject:
  m_ObjectHideFlags: 0
  m_CorrespondingSourceObject: {fileID: 0}
  m_PrefabInstance: {fileID: 0}
  m_PrefabAsset: {fileID: 0}
  serializedVersion: 6
  m_Component:
  - component: {fileID: 7224149186843043223}
  - component: {fileID: 7224149186843043220}
  m_Layer: 0
  m_Name: DialoguePlayer
  m_TagString: Untagged
  m_Icon: {fileID: 0}
  m_NavMeshLayer: 0
  m_StaticEditorFlags: 0
  m_IsActive: 1
--- !u!4 &7224149186843043223
Transform:
  m_ObjectHideFlags: 0
  m_CorrespondingSourceObject: {fileID: 0}
  m_PrefabInstance: {fileID: 0}
  m_PrefabAsset: {fileID: 0}
  m_GameObject: {fileID: 7224149186843043221}
  m_LocalRotation: {x: 0, y: 0, z: 0, w: 1}
  m_LocalPosition: {x: 0, y: 0, z: 0}
  m_LocalScale: {x: 1, y: 1, z: 1}
  m_Children: []
  m_Father: {fileID: 0}
  m_RootOrder: 0
  m_LocalEulerAnglesHint: {x: 0, y: 0, z: 0}
--- !u!114 &7224149186843043220
MonoBehaviour:
  m_ObjectHideFlags: 0
  m_CorrespondingSourceObject: {fileID: 0}
  m_PrefabInstance: {fileID: 0}
  m_PrefabAsset: {fileID: 0}
  m_GameObject: {fileID: 7224149186843043221}
  m_Enabled: 1
  m_EditorHideFlags: 0
  m_Script: {fileID: 11500000, guid: 3f558317e8a0d3a4b848e04a368b789b, type: 3}
  m_Name: 
  m_EditorClassIdentifier: 
  isEnabled: 0
  lines:
  - participant: 1
    portrait: {fileID: 21300000, guid: 1bc2c9eb8fa20d8408470383d945e5dc, type: 3}
    line: Destination reached. Orbital re-entry in... 5 minutes
  - participant: 0
    portrait: {fileID: -6551923605440160693, guid: 7ea0dd2cf8d509042a1d15d94b52028c, type: 3}
    line: Great! Data, set all systems to automatic
  - participant: 1
    portrait: {fileID: 21300000, guid: 1bc2c9eb8fa20d8408470383d945e5dc, type: 3}
    line: System upgrade downloaded. Rebooting now......
  - participant: 0
    portrait: {fileID: -6769945077001595711, guid: 7ea0dd2cf8d509042a1d15d94b52028c, type: 3}
    line: Does this look like a good moment?
  - participant: 0
    portrait: {fileID: -1989266700505860564, guid: 7ea0dd2cf8d509042a1d15d94b52028c, type: 3}
    line: Data?!
  - participant: 0
    portrait: {fileID: -1989266700505860564, guid: 7ea0dd2cf8d509042a1d15d94b52028c, type: 3}
    line: Damn you Macrosaw!
  - participant: 0
    portrait: {fileID: -7366200011981672565, guid: 7ea0dd2cf8d509042a1d15d94b52028c, type: 3}
    line: Guess I will have to do this the old manual way
  continueKey: 32
  portraitTarget: {fileID: 0}
  textTarget: {fileID: 0}
  instructionTarget: {fileID: 0}
  uiRoot: {fileID: 0}
